ISA*00*          *00*          *01*097853118      *12*8185901088     *151228*0921*U*00401*000100013*0*P*>
GS*SH*097853118*8185901088*20151228*0921*100013*T*004010
ST*856*000000014
BSN*00*000000014*20151228*0921*0001
HL*1**S
DTM*011*20151228
N1*SE*QK HEALTHCARE INC
N3*35 Sawgrass Dr Suite 3
N4*Bellport*NY*11713
N1*SF*QK HEALTHCARE INC
N3*35 Sawgrass Dr Suite 3
N4*Bellport*NY*11713
N1*BY*JD PHARMACEUTICAL WHOSLE
N3*6034 SAN FERNANDO RD
N4*GLENDALE*CA*91202
N1*ST*JD PHARMACEUTICAL WHOSLE
N3*6034 SANFERNANDO RD
N4*GLENDALE*CA*91202
YNQ*CX*Y***Seller has complied with each applicable subsection of FDCA Sec. 581(27)(A)-(G).***99*TS
HL*2*1*O
PRF*Internet
REF*IV*9279908
HL*3*2*P
HL*4*3*I
LIN**ND*66582041454*LT*L014058*VN*67042
SN1**1*EA**1*EA
PID*F****ZETIA 10MG TAB 90'S
DTM*208*20171228
N1*SU*H D  SMITH, LLC*91*03573
N3*670 BELLEVILLE TURNPIKE
N4*KEARNY*NJ*07032
REF*KK*20150903*9004227170
N1*SU*ArcMed*91*00447
N3*145 HUGUENOT STREET #408
N4*NEW ROCHELLE*NY*11801
REF*KK*20150902*90315
YNQ**Y******99*TS
HL*5*3*I
LIN**ND*66582041454*LT*L014058*VN*67042
SN1**1*EA**1*EA
PID*F****ZETIA 10MG TAB 90'S
DTM*208*20171228
N1*SU*H D  SMITH, LLC*91*03573
N3*670 BELLEVILLE TURNPIKE
N4*KEARNY*NJ*07032
REF*KK*20150903*9004227170
N1*SU*ArcMed*91*00447
N3*145 HUGUENOT STREET #408
N4*NEW ROCHELLE*NY*11801
REF*KK*20150902*90315
YNQ**Y******99*TS
HL*6*3*I
LIN**ND*00032122401*LT*1030569*VN*70221
SN1**1*EA**1*EA
PID*F****CREON CAP DELAYD REL 24000 100S
DTM*208*20161128
N1*SU*MCKESSON DRUG COMPANY*91*05174
N3*1 POST STREET
N4*SAN FRANCISCO*CA*94104
REF*KK*20150311*7676646835
N1*SU*INDEPENDENT PHARMACY COOP*91*04029
N3*1550 COLUMBUS STREET
N4*SUN PRAIRIE*WI*53590
REF*KK*20150312*5917837
YNQ**Y******99*TS
HL*7*3*I
LIN**ND*00032122401*LT*1030569*VN*70221
SN1**1*EA**1*EA
PID*F****CREON CAP DELAYD REL 24000 100S
DTM*208*20161128
N1*SU*MCKESSON DRUG COMPANY*91*05174
N3*1 POST STREET
N4*SAN FRANCISCO*CA*94104
REF*KK*20150311*7676646835
N1*SU*INDEPENDENT PHARMACY COOP*91*04029
N3*1550 COLUMBUS STREET
N4*SUN PRAIRIE*WI*53590
REF*KK*20150312*5917837
YNQ**Y******99*TS
HL*8*3*I
LIN**ND*00006011231*LT*L020492*VN*73433
SN1**1*EA**1*EA
PID*F****JANUVIA 50MG 30'S
DTM*208*20180328
N1*SU*AMERISOURCEBERGEN*91*00325
N3*6810 SHADY OAK RD
N4*EDEN PRAIRIE*MN*55344
REF*KK*20150720*761101728
N1*SU*SMART-FILL MANAGEMENT GRO*91*07799
N3*905 NORTH MAIN ST
N4*AUSTIN*MN*55912
REF*KK*20150720*7656
YNQ**Y******99*TS
HL*9*3*I
LIN**ND*00006011231*LT*L020492*VN*73433
SN1**1*EA**1*EA
PID*F****JANUVIA 50MG 30'S
DTM*208*20180328
N1*SU*AMERISOURCEBERGEN*91*00325
N3*6810 SHADY OAK RD
N4*EDEN PRAIRIE*MN*55344
REF*KK*20150720*761101728
N1*SU*SMART-FILL MANAGEMENT GRO*91*07799
N3*905 NORTH MAIN ST
N4*AUSTIN*MN*55912
REF*KK*20150720*7656
YNQ**Y******99*TS
HL*10*3*I
LIN**ND*00006011231*LT*L022918*VN*73433
SN1**1*EA**1*EA
PID*F****JANUVIA 50MG 30'S
DTM*208*20180328
N1*SU*AMERISOURCEBERGEN*91*00325
N3*6810 SHADY OAK RD
N4*EDEN PRAIRIE*MN*55344
REF*KK*20150819*762736949
N1*SU*SMART-FILL MANAGEMENT GRO*91*07799
N3*905 NORTH MAIN ST
N4*AUSTIN*MN*55912
REF*KK*20150819*7870
YNQ**Y******99*TS
HL*11*3*I
LIN**ND*00006011231*LT*L022918*VN*73433
SN1**1*EA**1*EA
PID*F****JANUVIA 50MG 30'S
DTM*208*20180328
N1*SU*AMERISOURCEBERGEN*91*00325
N3*6810 SHADY OAK RD
N4*EDEN PRAIRIE*MN*55344
REF*KK*20150819*762736949
N1*SU*SMART-FILL MANAGEMENT GRO*91*07799
N3*905 NORTH MAIN ST
N4*AUSTIN*MN*55912
REF*KK*20150819*7870
YNQ**Y******99*TS
HL*12*3*I
LIN**ND*00006008061*LT*L027607*VN*73454
SN1**1*EA**1*EA
PID*F****JANUMET XR 50MG/1000MG 60S
DTM*208*20170428
N1*SU*MCKESSON DRUG COMPANY*91*05174
N3*1 POST STREET
N4*SAN FRANCISCO*CA*94104
REF*KK*20150824*7703241105
N1*SU*INDEPENDENT PHARM COOP*91*04013
N3*5610 SOUTH 40TH ST   STE1
N4*PHOENIX*AZ*85040
REF*KK*20150825*6036279
YNQ**Y******99*TS
HL*13*3*I
LIN**ND*00006008061*LT*L027607*VN*73454
SN1**1*EA**1*EA
PID*F****JANUMET XR 50MG/1000MG 60S
DTM*208*20170428
N1*SU*MCKESSON DRUG COMPANY*91*05174
N3*1 POST STREET
N4*SAN FRANCISCO*CA*94104
REF*KK*20150824*7703241105
N1*SU*INDEPENDENT PHARM COOP*91*04013
N3*5610 SOUTH 40TH ST   STE1
N4*PHOENIX*AZ*85040
REF*KK*20150825*6036279
YNQ**Y******99*TS
HL*14*3*I
LIN**ND*00006008131*LT*L005604*VN*73484
SN1**1*EA**1*EA
PID*F****JANUMET XR 100MG/1000MG 30S
DTM*208*20160628
N1*SU*MCKESSON DRUG COMPANY*91*05174
N3*1 POST STREET
N4*SAN FRANCISCO*CA*94104
REF*KK*20150322*7678384893
N1*SU*INDEPENDENT PHARMACY COOP*91*04029
N3*1550 COLUMBUS STREET
N4*SUN PRAIRIE*WI*53590
REF*KK*20150323*5925322
YNQ**Y******99*TS
HL*15*3*I
LIN**ND*00006008131*LT*L005604*VN*73484
SN1**1*EA**1*EA
PID*F****JANUMET XR 100MG/1000MG 30S
DTM*208*20160628
N1*SU*MCKESSON DRUG COMPANY*91*05174
N3*1 POST STREET
N4*SAN FRANCISCO*CA*94104
REF*KK*20150322*7678384893
N1*SU*INDEPENDENT PHARMACY COOP*91*04029
N3*1550 COLUMBUS STREET
N4*SUN PRAIRIE*WI*53590
REF*KK*20150323*5925322
YNQ**Y******99*TS
HL*16*3*I
LIN**ND*00597014030*LT*461687A*VN*76377
SN1**1*EA**1*EA
PID*F****TRADJENTA 5MG TAB 30S
DTM*208*20171028
N1*SU*AMERISOURCEBERGEN*91*00325
N3*6810 SHADY OAK RD
N4*EDEN PRAIRIE*MN*55344
REF*KK*20150224*752440006
N1*SU*SMART-FILL MANAGEMENT GRO*91*07799
N3*905 NORTH MAIN ST
N4*AUSTIN*MN*55912
REF*KK*20150224*6730
YNQ**Y******99*TS
HL*17*3*I
LIN**ND*00597014030*LT*461687A*VN*76377
SN1**1*EA**1*EA
PID*F****TRADJENTA 5MG TAB 30S
DTM*208*20171028
N1*SU*AMERISOURCEBERGEN*91*00325
N3*6810 SHADY OAK RD
N4*EDEN PRAIRIE*MN*55344
REF*KK*20150224*752440006
N1*SU*SMART-FILL MANAGEMENT GRO*91*07799
N3*905 NORTH MAIN ST
N4*AUSTIN*MN*55912
REF*KK*20150224*6730
YNQ**Y******99*TS
HL*18*3*I
LIN**ND*50458057830*LT*15KG746*VN*76728
SN1**1*EA**1*EA
PID*F****XARELTO 15MG TAB 30S
DTM*208*20171128
N1*SU*MCKESSON DRUG COMPANY*91*05174
N3*1 POST STREET
N4*SAN FRANCISCO*CA*94104
REF*KK*20151021*7712803290
N1*SU*INDEPENDENT PHARMACY COOP*91*04029
N3*1550 COLUMBUS STREET
N4*SUN PRAIRIE*WI*53590
REF*KK*20151022*6076753
YNQ**Y******99*TS
HL*19*3*I
LIN**ND*50458057830*LT*15KG746*VN*76728
SN1**1*EA**1*EA
PID*F****XARELTO 15MG TAB 30S
DTM*208*20171128
N1*SU*MCKESSON DRUG COMPANY*91*05174
N3*1 POST STREET
N4*SAN FRANCISCO*CA*94104
REF*KK*20151021*7712803290
N1*SU*INDEPENDENT PHARMACY COOP*91*04029
N3*1550 COLUMBUS STREET
N4*SUN PRAIRIE*WI*53590
REF*KK*20151022*6076753
YNQ**Y******99*TS
HL*20*3*I
LIN**ND*50458014130*LT*15GG403X*VN*77635
SN1**1*EA**1*EA
PID*F****INVOKANA 300MG TAB 30'S
DTM*208*20170428
N1*SU*MCKESSON DRUG COMPANY*91*05174
N3*1 POST STREET
N4*SAN FRANCISCO*CA*94104
REF*KK*20150803*7699869884
N1*SU*INDEPENDENT PHARM COOP*91*04013
N3*5610 SOUTH 40TH ST   STE1
N4*PHOENIX*AZ*85040
REF*KK*20150804*6021085
YNQ**Y******99*TS
HL*21*3*I
LIN**ND*50458014130*LT*15GG403X*VN*77635
SN1**1*EA**1*EA
PID*F****INVOKANA 300MG TAB 30'S
DTM*208*20170428
N1*SU*MCKESSON DRUG COMPANY*91*05174
N3*1 POST STREET
N4*SAN FRANCISCO*CA*94104
REF*KK*20150803*7699869884
N1*SU*INDEPENDENT PHARM COOP*91*04013
N3*5610 SOUTH 40TH ST   STE1
N4*PHOENIX*AZ*85040
REF*KK*20150804*6021085
YNQ**Y******99*TS
SE*274*000000014
GE*1*100013
IEA*1*000100013
